{
  "beginIndex": 0,
  "endIndex": 1,
  "firstPage": true,
  "hasNextPage": false,
  "hasPrePage": false,
  "items": [
    {
      "id": 1,
      "name": "会员1",
      "mobile": "18065522561",
      "nick_name": "昵称1",
      "id_card_no": "25365478955455666554",
      "card_no": "145145514"
    },
    {
      "id": 5,
      "name": "会员1",
      "mobile": "18065522561",
      "nick_name": "昵称5",
      "id_card_no": "25365478955455666554",
      "card_no": "145145514"
    },
    {
      "id": 4,
      "name": "会员4",
      "mobile": "18065522564",
      "nick_name": "昵称4",
      "id_card_no": "25365478955455666554",
      "card_no": "145145514"
    },
    {
      "id": 2,
      "name":"会员2",
      "mobile": "180655225612",
      "nick_name": "昵称1",
      "id_card_no": "25365478955455666552",
      "card_no": "145145512"
    },
    {
      "id": 3,
      "name": "会员3",
      "mobile": "18065522563",
      "nick_name": "昵称3",
      "id_card_no": "25365478955455666553",
      "card_no": "145145513"
    }
  ],
  "lastPage": true,
  "nextPage": 1,
  "offset": 0,
  "pageNo": 1,
  "pageSize": 10,
  "prePage": 1,
  "totalCount": 100,
  "totalPages": 1
}

