{
  "beginIndex": 0,
  "endIndex": 1,
  "firstPage": true,
  "hasNextPage": false,
  "hasPrePage": false,
  "items": [
    {
      "id": 1,
      "market_id": 2,
      "shop_id": 1,
      "sequence_no": "22236548",
      "soft_version": "36",
      "last_update_user": "小东",
      "status": 0
    },
    {
      "id": 2,
      "market_id": 3,
      "shop_id": 2,
      "sequence_no": "895654",
      "soft_version": "87",
      "last_update_user": "faie",
      "status": 1
    },
    {
      "id": 3,
      "market_id": 1,
      "shop_id": 3,
      "sequence_no": "96545",
      "soft_version": "33",
      "last_update_user": "fagrj",
      "status": 0
    },
    {
      "id": 4,
      "market_id": 4,
      "shop_id": 4,
      "sequence_no": "98551",
      "soft_version": "874",
      "last_update_user": "gsrh",
      "status": 0
    }
  ],
  "lastPage": true,
  "nextPage": 1,
  "offset": 0,
  "pageNo": 1,
  "pageSize": 10,
  "prePage": 1,
  "totalCount": 100,
  "totalPages": 1
}

