{
  "beginIndex": 0,
  "endIndex": 1,
  "firstPage": true,
  "hasNextPage": false,
  "hasPrePage": false,
  "items": [
    {
      "id": 1,
      "market_id": 3,
      "name": "55摊位",
      "area": 20.1,
      "funcType": 1,
      "status": 1
    },
    {
      "id": 2,
      "market_id": 2,
      "name": "555摊位",
      "area": 20.12,
      "funcType": 2,
      "status": 1
    },
    {
      "id": 3,
      "market_id": 1,
      "name": "5555摊位",
      "area": 60.12,
      "funcType": 3,
      "status": 0
    }
  ],
  "lastPage": true,
  "nextPage": 1,
  "offset": 0,
  "pageNo": 1,
  "pageSize": 10,
  "prePage": 1,
  "totalCount": 100,
  "totalPages": 1
}

