{
  "beginIndex": 0,
  "endIndex": 1,
  "firstPage": true,
  "hasNextPage": false,
  "hasPrePage": false,
  "items": [
    {
      "id": 1,
      "order_no": "NO20170123100035",
      "buyer": "张三",
      "pay_time": "2017-01-23 09:23:55"
    },
    {
      "id": 2,
      "order_no": "NO20170123100035",
      "buyer": "张三",
      "pay_time": "2017-01-23 09:23:55"
    },
    {
      "id": 1,
      "order_no": "NO20170123100035",
      "buyer": "小五",
      "pay_time": "2017-01-23 09:23:55"
    },
    {
      "id": 1,
      "order_no": "NO20170123100035",
      "buyer": "李四",
      "pay_time": "2017-01-23 09:23:55"
    },
    {
      "id": 1,
      "order_no": "NO20170123100035",
      "buyer": "旺旺",
      "pay_time": "2017-01-23 09:23:55"
    },
    {
      "id": 1,
      "order_no": "NO20170123100035",
      "buyer": "陈丽",
      "pay_time": "2017-01-23 09:23:55"
    },
    {
      "id": 1,
      "order_no": "NO20170123100035",
      "buyer": "白强",
      "pay_time": "2017-01-23 09:23:55"
    },
    {
      "id": 1,
      "order_no": "NO20170123100035",
      "buyer": "周四",
      "pay_time": "2017-01-23 09:23:55"
    },
    {
      "id": 1,
      "order_no": "NO20170123100035",
      "buyer": "周四",
      "pay_time": "2017-01-23 09:23:55"
    },
    {
      "id": 1,
      "order_no": "NO20170123100035",
      "buyer": "周四",
      "pay_time": "2017-01-23 09:23:55"
    },
    {
      "id": 1,
      "order_no": "NO20170123100035",
      "buyer": "周四",
      "pay_time": "2017-01-23 09:23:55"
    },
    {
      "id": 1,
      "order_no": "NO20170123100035",
      "buyer": "周四",
      "pay_time": "2017-01-23 09:23:55"
    }
  ],
  "lastPage": true,
  "nextPage": 1,
  "offset": 0,
  "pageNo": 1,
  "pageSize": 10,
  "prePage": 1,
  "totalCount": 100,
  "totalPages": 1
}

