{
  "beginIndex": 0,
  "endIndex": 1,
  "firstPage": true,
  "hasNextPage": false,
  "hasPrePage": false,
  "items": [
    {
      "id": 1,
      "idCard_no": "123456",
      "mobile": "13616000000",
      "name": "经营者",
      "nick_name": "小经营",
      "sex": 1,
      "tel": "0592-00000000"
    },
    {
      "id": 2,
      "idCard_no": "1234567",
      "mobile": "13615555",
      "name": "张三",
      "nick_name": "张三",
      "sex": 0,
      "tel": "0592-222222"
    },
    {
      "id": 3,
      "idCard_no": "89565422",
      "mobile": "13644444",
      "name": "李思",
      "nick_name": "李思",
      "sex": 0,
      "tel": "0592-222221"
    },
    {
      "id": 4,
      "idCard_no": "8955325422",
      "mobile": "1365555",
      "name": "小东",
      "nick_name": "小东",
      "sex": 1,
      "tel": "0592-225551"
    }
  ],
  "lastPage": true,
  "nextPage": 1,
  "offset": 0,
  "pageNo": 1,
  "pageSize": 10,
  "prePage": 1,
  "totalCount": 100,
  "totalPages": 1
}


